Bayesian simulation pipelines with jagstargets • jagstargets
…
The result is an aggregated data frame of summary statistics, where the .rep column distinguishes among individual replicates. We have the posterior intervals for beta in columns q2.5 and q97.5. And thanks to the .join_data list we included in generate_data(), our output has a .join_data column with the true values of the parameters in our simulations.

tar_load(model)
model
#> # A tibble: 40 × 9
#>    variable   q2.5   q97.5 .join_data .dataset_id      .rep    .seed .file .name
#>    <chr>     <dbl>   <dbl>      <dbl> <chr>            <chr>   <int> <chr> <chr>
#>  1 beta[1]  -0.766  0.414      0.0780 model_data_b0b9… 5a0c… -1.49e9 mode… model
#>  2 beta[2]  -1.19   0.574      0.272  model_data_b0b9… 5a0c… -1.49e9 mode… model
#>  3 beta[1]   0.456  1.66       1.19   model_data_b0b9… b7a4…  2.04e9 mode… model
#>  4 beta[2]  -0.832  0.960      0.0635 model_data_b0b9… b7a4…  2.04e9 mode… model
#>  5 beta[1]   1.32   2.49       2.15   model_data_b0b9… 5c64…  4.83e8 mode… model
#>  6 beta[2]  -1.90  -0.169     -1.71   model_data_b0b9… 5c64…  4.83e8 mode… model
#>  7 beta[1]  -0.242  0.940      0.271  model_data_b0b9… 04f5…  6.64e8 mode… model
#>  8 beta[2]  -1.70   0.0636    -0.407  model_data_b0b9… 04f5…  6.64e8 mode… model
#>  9 beta[1]   0.671  1.86       1.44   model_data_ffcd… 4fa1… -1.33e9 mode… model
#> 10 beta[2]  -1.15   0.636     -0.579  model_data_ffcd… 4fa1… -1.33e9 mode… model
#> # ℹ 30 more rows
…
